Place,Name,Division,Country,BodyweightKg,Squat1Kg,Squat2Kg,Squat3Kg,Best3SquatKg,Squat4Kg,Bench1Kg,Bench2Kg,Bench3Kg,Best3BenchKg,Deadlift1Kg,Deadlift2Kg,Deadlift3Kg,Best3DeadliftKg,Deadlift4Kg,TotalKg,WeightClassKg,Sex,Event,Equipment
1,V Oster,Teen 1,Belgium,,70,77.5,82.5,82.5,,27.5,32.5,-35,32.5,85,92.5,-95,92.5,,207.5,44,F,SBD,Single-ply
1,Doris Simmons,Open,USA,,137.5,-147.5,147.5,147.5,,75,82.5,-87.5,82.5,137.5,150,160,160,,390,52,F,SBD,Single-ply
2,P Cinti,Open,Italy,,70,77.8,85,85,,60,70,-72.5,70,95,110,115,115,,270,52,F,SBD,Single-ply
1,Wendy Brocius,Open,USA,,140,160,167.5,167.5,,80,85,-90,85,140,157.5,-167.5,157.5,,410,56,F,SBD,Single-ply
2,Bernadette Plouviez,Open,Belgium,,125,132.5,137.5,137.5,,65,70,-75,70,140,-145,,140,,347.5,56,F,SBD,Single-ply
3,D. Thomas,Open,Great Britain,,90,95,110,110,,47.5,52.5,62.5,62.5,90,110,-135,110,,282.5,56,F,SBD,Single-ply
1,Bernadette Plouviez,Masters 3,Belgium,,125,132.5,137.5,137.5,,65,70,-75,70,140,-145,,140,,347.5,56,F,SBD,Single-ply
1,Nathalie Picone,Teen 2,Belgium,,90,102.5,105,105,,47.5,52.5,55,55,120,132.5,137.5,137.5,,297.5,60,F,SBD,Single-ply
1,Catherine Faraldo,Open,USA,,130,140,145,145,,82.5,-92.5,92.5,92.5,137.5,150,-157.5,150,,387.5,60,F,SBD,Single-ply
2,Nathalie Picone,Open,Belgium,,90,102.5,105,105,,47.5,52.5,55,55,120,132.5,137.5,137.5,,297.5,60,F,SBD,Single-ply
1,S Surain,Teen 1,Belgium,,120,130,-140,130,,45,47.5,-50,47.5,135,137.5,145,145,,322.5,67.5,F,SBD,Single-ply
1,Rachael McCallef,Teen 2,Australia,,140,165,175,175,,100,105,110,110,150,170,-180,170,,455,67.5,F,SBD,Single-ply
1,Mariah Liggett,Open,USA,,177.5,195,207.5,207.5,215,112.5,120,122.5,122.5,185,210,-222.5,210,,540,67.5,F,SBD,Single-ply
1,Laura Dodd,Open,USA,,205,222.5,237.5,237.5,252.5,92.5,97.5,105,105,190,215,227.5,227.5,,570,75,F,SBD,Single-ply
2,L Shorthose,Open,Great Britain,,100,110,-120,110,,50,60,65,65,125,150,-155,150,,325,75,F,SBD,Single-ply
1,Laura Dodd,Masters 1,USA,,205,222.5,237.5,237.5,252.5,92.5,97.5,105,105,190,215,227.5,227.5,,570,75,F,SBD,Single-ply
1,Dawn Reshel-Sharon,Open,USA,,252.5,272.5,-290,272.5,,137.5,147.5,152.5,152.5,252.5,-275,-275,252.5,,677.5,90,F,SBD,Single-ply
1,Maris Anne Sternberg,Open,USA,,185,200,212.5,212.5,,102.5,115,-117.5,115,165,182.5,,182.5,,510,90+,F,SBD,Single-ply
1,Maris Anne Sternberg,Masters 1,USA,,185,200,212.5,212.5,,102.5,115,-117.5,115,165,182.5,,182.5,,510,90+,F,SBD,Single-ply
1,Renee Van Camp,Masters 3,Belgium,,70,77.5,-82.5,77.5,,42.5,47.5,50,50,100,110,120,120,,247.5,90+,F,SBD,Single-ply
1,Peterson,Teen 1,USA,,105,-117.5,,105,,57.5,,,57.5,107.5,,,107.5,,270,56,M,SBD,Single-ply
1,Jose DeSousa,Teen 3,South Africa,,175,195,210,210,,-95,102.5,110,110,175,182.5,-195,182.5,,502.5,56,M,SBD,Single-ply
1,James Williams,Teen 1,USA,,140,147.5,-152.5,147.5,,77.5,82.5,-85,82.5,165,172.5,182.5,182.5,,412.5,60,M,SBD,Single-ply
1,O Oster,Teen 2,Belgium,,155,162.5,170,170,,87.5,92.5,-95,92.5,190,200,-210,200,,462.5,60,M,SBD,Single-ply
1,K. Chilcott,Juniors,Great Britain,,160,170,180,180,,115,120,-125,120,170,-180,180,180,,480,60,M,SBD,Single-ply
1,Doug Heath,Open,USA,,192.5,217.5,235,235,,147.5,177.5,182.5,182.5,192.5,220,-240,220,,637.5,60,M,SBD,Single-ply
2,K. Chilcott,Open,Great Britain,,160,170,180,180,,115,120,-125,120,170,-180,180,180,,480,60,M,SBD,Single-ply
DQ,J Schiller,Open,USA,,147.5,160,172.5,172.5,,-105,-120,-120,,,,,,,,60,M,SBD,Single-ply
1,Frederick Glass,Masters 3,USA,,130,152.5,-175,152.5,,65,70,72.5,72.5,182.5,190,-202.5,190,,415,60,M,SBD,Single-ply
1,P Jacobs,Teen 3,Belgium,,180,-195,-195,180,,120,125,-132.5,125,200,-207.5,-212.5,200,,505,67.5,M,SBD,Single-ply
2,John Marsden,Teen 3,Great Britain,,155,170,-180,170,,100,110,112.5,112.5,195,-205,-205,195,,477.5,67.5,M,SBD,Single-ply
3,Dibecher,Teen 3,Belgium,,135,-165,-165,135,,90,100,-105,100,160,-175,180,180,,415,67.5,M,SBD,Single-ply
1,Norm Shackleford,Juniors,USA,,-217.5,217.5,230,230,,140,-152.5,-152.5,140,-237.5,237.5,-260,237.5,,607.5,67.5,M,SBD,Single-ply
1,Dominic Sardo,Open,USA,,-270,270,-272.5,270,,180,185,187.5,187.5,-250,250,255,255,,712.5,67.5,M,SBD,Single-ply
2,Jesse Jackson,Open,USA,,275,-310,-310,275,,142.5,152.5,-155,152.5,265,282.5,-290,282.5,,710,67.5,M,SBD,Single-ply
3,Norm Shackleford,Open,USA,,-217.5,217.5,230,230,,140,-152.5,-152.5,140,-237.5,237.5,-260,237.5,,607.5,67.5,M,SBD,Single-ply
4,Maurice Green,Open,Great Britain,,150,167.5,180,180,,80,90,97.5,97.5,180,200,205,205,,482.5,67.5,M,SBD,Single-ply
1,Nanocchio,Masters 1,Italy,,225,245,265,265,,110,120,-127.5,120,220,-240,-240,220,,605,67.5,M,SBD,Single-ply
2,Jim Benson,Masters 1,USA,,190,207.5,217.5,217.5,,110,115,117.5,117.5,215,222.5,-230,222.5,,557.5,67.5,M,SBD,Single-ply
1,James Capehart,Masters 2,USA,,170,182.5,187.5,187.5,,112.5,117.5,120,120,172.5,182.5,-187.5,182.5,,490,67.5,M,SBD,Single-ply
2,Les Cramer,Masters 2,USA,,172.5,180,-182.5,180,,112.5,-117.5,,112.5,165,-172.5,-177.5,165,,457.5,67.5,M,SBD,Single-ply
1,Joseph McCoy,Teen 2,USA,,227.5,247.5,260,260,,145,155,-160,155,220,-237.5,-237.5,220,,635,75,M,SBD,Single-ply
1,Edward Downing,Teen 3,South Africa,,,,,235,,,,,167.5,,,,232.5,,635,75,M,SBD,Single-ply
2,J De Vriese,Teen 3,Belgium,,170,185,195,195,,90,95,-100,95,180,200,-210,200,,490,75,M,SBD,Single-ply
3,D Setteys,Teen 3,Belgium,,125,140,155,155,,90,102.5,110,110,140,175,195,195,,460,75,M,SBD,Single-ply
1,S Allsop,Juniors,Great Britain,,160,-175,175,175,,85,95,-100,95,215,225,-235,225,,495,75,M,SBD,Single-ply
1,Neville Primich,Open,South Africa,,300,320,-327.5,320,,185,195,-200,195,265,-277.5,-277.5,265,,780,75,M,SBD,Single-ply
2,Jose Perez,Open,USA,,302.5,322.5,-327.5,322.5,,197.5,210,-212.5,210,245,-275,-275,245,,777.5,75,M,SBD,Single-ply
3,Enzo Vaccari,Open,Italy,,280,295,-305,295,,170,-175,180,180,270,285,-307.5,285,,760,75,M,SBD,Single-ply
4,Graham Ward,Open,Great Britain,,250,270,-285,270,,145,155,-160,155,260,275,-282.5,275,,700,75,M,SBD,Single-ply
5,Hasie Debeer,Open,South Africa,,-260,280,-302.5,280,,-150,150,160,160,240,-250,-250,240,,680,75,M,SBD,Single-ply
6,N Zorzi,Open,Italy,,235,-245,255,255,,135,145,150,150,250,265,-275,265,,670,75,M,SBD,Single-ply
7,S Allsop,Open,Great Britain,,160,-175,175,175,,85,95,-100,95,215,225,-235,225,,495,75,M,SBD,Single-ply
1,David Berg,Masters 1,Great Britain,,230,242.5,252.5,252.5,,125,130,-132.5,130,230,242.5,-247.5,242.5,,625,75,M,SBD,Single-ply
2,R Mercier,Masters 1,Belgium,,175,185,195,195,,117.5,125,130,130,180,195,205,205,,530,75,M,SBD,Single-ply
3,Jim Kiser,Masters 1,USA,,142.5,180,-200,180,,105,115,-122.5,115,147.5,165,175,175,,470,75,M,SBD,Single-ply
1,Bill Ramsrud,Masters 5,USA,,172.5,202.5,-207.5,202.5,,62.5,,,62.5,62.5,,,62.5,,327.5,75,M,SBD,Single-ply
1,Ed Riley,Teen 1,USA,,102.5,120,130,130,,-102.5,107.5,110,110,142.5,165,172.5,172.5,,412.5,82.5,M,SBD,Single-ply
1,Householder,Teen 2,USA,,185,207.5,220,220,,140,152.5,160,160,230,245,-257.5,245,-257.5,625,82.5,M,SBD,Single-ply
1,Frank Mombert,Teen 3,Belgium,,-200,200,-230,200,,115,127.5,135,135,240,255,-265,255,,590,82.5,M,SBD,Single-ply
1,Tony Kamand,Open,USA,,-310,322.5,337.5,337.5,,190,202.5,-210,202.5,287.5,305,315,315,,855,82.5,M,SBD,Single-ply
2,Enzo Cattuci,Open,Italy,,255,-270,270,270,,195,205,-210,205,250,265,-295,265,,740,82.5,M,SBD,Single-ply
3,Neil Arnold,Open,Great Britain,,245,-260,260,260,,155,165,-172.5,165,240,252.5,-260,252.5,,677.5,82.5,M,SBD,Single-ply
4,Alon Ben-Shahar,Open,Israel,,170,-197.5,-200,170,,-155,155,-170,155,150,175,182.5,182.5,,507.5,82.5,M,SBD,Single-ply
1,Jan Ferreira,Masters 1,South Africa,,290,-310,-310,290,,180,190,-195,190,290,-300,300,300,,780,82.5,M,SBD,Single-ply
1,Robyn Brown,Masters 2,Great Britain,,160,270,-277.5,270,,145,155,160,160,255,275,-282.5,275,,705,82.5,M,SBD,Single-ply
1,Ian Morris,Masters 3,South Africa,,180,200,-230,200,,120,135,140,140,180,200,215,215,,555,82.5,M,SBD,Single-ply
1,Mario D'Anversa,Masters 5,Italy,,80,100,120,120,,-102.5,102.5,120,120,120,-150,150,150,,390,82.5,M,SBD,Single-ply
2,Eugene McCulloch,Masters 5,USA,,-100,100,-160,100,,100,105,-107.5,105,145,-175,,145,,350,82.5,M,SBD,Single-ply
1,Mankamyer,Teen 2,USA,,185,215,222.5,222.5,237.5,112.5,132.5,-135,132.5,205,242.5,-255,242.5,,597.5,90,M,SBD,Single-ply
1,Mike Bannagham,Teen 3,Great Britain,,-160,160,190,190,,120,145,-160,145,180,220,-230,220,,555,90,M,SBD,Single-ply
1,T Vaughn,Juniors,Belgium,,225,,,225,,140,150,155,155,235,,,235,,615,90,M,SBD,Single-ply
1,Kevin Hammerton,Open,Great Britain,,290,310,322.5,322.5,,170,180,185,185,285,300,305,305,,812.5,90,M,SBD,Single-ply
2,Crisostoni,Open,Italy,,250,270,285,285,,180,-200,-200,180,260,275,-285,275,,740,90,M,SBD,Single-ply
3,Keith Phillips,Open,Great Britain,,250,260,270,270,,130,135,140,140,280,-290,-290,280,,690,90,M,SBD,Single-ply
4,Sergio Bianchi,Open,Italy,,240,-260,260,260,,165,172.5,-180,172.5,220,-240,-240,220,,652.5,90,M,SBD,Single-ply
5,T Vaughn,Open,Belgium,,225,,,225,,145,150,155,155,235,,,235,,615,90,M,SBD,Single-ply
1,Alan Ferguson,Masters 1,South Africa,,240,260,275,275,,155,165,-172.5,165,250,270,280,280,,720,90,M,SBD,Single-ply
2,P Jones,Masters 1,Great Britain,,200,-210,210,210,,140,145,150,150,220,-240,-240,220,,580,90,M,SBD,Single-ply
1,Johnny Kay,Masters 2,South Africa,,235,-260,260,260,,150,162.5,170,170,220,-235,-235,220,,650,90,M,SBD,Single-ply
2,Chris Bannagham,Masters 2,Great Britain,,-180,180,-240,180,,100,140,-145,140,180,230,250,250,,570,90,M,SBD,Single-ply
1,Burt Rosenfield,Masters 4,USA,,185,200,-210,200,,137.5,-147.5,-147.5,137.5,210,-227.5,-227.5,210,,547.5,90,M,SBD,Single-ply
1,A Mesa,Juniors,Great Britain,,240,-260,-260,240,,150,162.5,-170,162.5,245,-255,255,255,,657.5,100,M,SBD,Single-ply
1,Rick Priester,Open,Netherlands,,295,305,315,315,,205,212.5,-217.5,212.5,290,302.5,310,310,,837.5,100,M,SBD,Single-ply
2,R Anthony,Open,South Africa,,300,-330,,300,,200,215,-217.5,215,280,315,-325,315,,830,100,M,SBD,Single-ply
3,M Biljon,Open,South Africa,,-320,320,-340,320,,187.5,197.5,-200,197.5,-310,310,-322.5,310,,827.5,100,M,SBD,Single-ply
4,A Mesa,Open,Great Britain,,240,-260,-260,240,,150,162.5,-170,162.5,245,-255,255,255,,657.5,100,M,SBD,Single-ply
1,Joe DeVerville,Masters 1,USA,,277.5,292.5,-297.5,292.5,,205,-210,-210,205,287.5,-300,-300,287.5,,785,100,M,SBD,Single-ply
1,Mike Stone,Masters 2,USA,,250,275,292.5,292.5,,170,-182.5,-182.5,170,250,-260,,250,,712.5,100,M,SBD,Single-ply
1,T Bauers,Masters 3,USA,,-240,-240,257.5,257.5,,150,-165,,150,227.5,272.5,,272.5,,680,100,M,SBD,Single-ply
1,Henry McEvoy,Masters 5,USA,,-100,100,125,125,,107.5,117.5,-125,117.5,170,182.5,192.5,192.5,,435,100,M,SBD,Single-ply
1,Eugene Van der Merwer,Open,South Africa,,405,-425,-440,405,,210,-220,220,220,310,-337.5,,310,,935,110,M,SBD,Single-ply
2,T Cameron,Open,Great Britain,,272.5,-300,300,300,,200,220,-230,220,272.5,-295,295,295,,815,110,M,SBD,Single-ply
3,Enrico Brusco,Open,Italy,,-310,310,-330,310,,-200,200,210,210,275,-297.5,-297.5,275,,795,110,M,SBD,Single-ply
4,P Decat,Open,Belgium,,215,230,-240,230,,135,145,-155,145,250,265,272.5,272.5,,647.5,110,M,SBD,Single-ply
DQ,Glenn Stevens,Masters 1,USA,,-302.5,,,,,,,,,,,,,,,110,M,SBD,Single-ply
1,Michael Brown,Masters 2,USA,,260,270,-282.5,270,,125,135,140,140,290,305,315,315,-320,725,110,M,SBD,Single-ply
1,M. White,Masters 3,Great Britain,,197.5,210,217.5,217.5,,117.5,125,132.5,132.5,235,247.5,260,260,,610,110,M,SBD,Single-ply
1,Gerard Zappa,Masters 4,Belgium,,-180,180,185,185,,150,-157.5,-157.5,150,180,187.5,192.5,192.5,,527.5,110,M,SBD,Single-ply
2,Daniel Eakin W.,Masters 4,USA,,-170,170,-185,170,,125,132.5,-137.5,132.5,202.5,215,-230,215,,517.5,110,M,SBD,Single-ply
3,Anderson,Masters 4,USA,,170,-185,-192.5,170,,152.5,157.5,-165,157.5,-170,170,-182.5,170,,497.5,110,M,SBD,Single-ply
1,S Brock,Teen 3,USA,,277.5,302.5,322.5,322.5,,202.5,220,227.5,227.5,260,275,-282.5,275,,825,125,M,SBD,Single-ply
DQ,E Huss,Teen 3,South Africa,,260,280,302.5,302.5,,-180,-200,-200,,,,,,,,125,M,SBD,Single-ply
1,John Buck,Juniors,Great Britain,,300,310,320,320,,220,240,260,260,295,-307.5,-307.5,295,,875,125,M,SBD,Single-ply
1,Scott Warman,Open,USA,,380,397.5,412.5,412.5,,222.5,-235,-235,222.5,370,-377.5,377.5,377.5,,1012.5,125,M,SBD,Single-ply
2,Phil Niemandt,Open,South Africa,,330,355,-365,355,,230,240,-250,240,300,310,-320,310,,905,125,M,SBD,Single-ply
3,John Buck,Open,Great Britain,,300,310,320,320,,220,240,260,260,295,-307.5,-307.5,295,,875,125,M,SBD,Single-ply
4,Mike Barker,Open,South Africa,,330,-350,-355,330,,210,-225,-225,210,300,320,-377.5,320,,860,125,M,SBD,Single-ply
DQ,Jay Oliver,Open,USA,,352.5,-370,370,370,,227.5,242.5,-250,242.5,-337.5,,,,,,125,M,SBD,Single-ply
1,T Carter David,Masters 1,Great Britain,,295,320,330,330,,167.5,175,-182.5,175,350,370,-387.5,370,,875,125,M,SBD,Single-ply
2,G. Burch,Masters 1,USA,,-310,310,-350,310,,160,177.5,182.5,182.5,270,300,310,310,,802.5,125,M,SBD,Single-ply
1,Edward Riley,Masters 4,USA,,137.5,205,230,230,,102.5,122.5,-137.5,122.5,137.5,182.5,-252.5,182.5,,535,125,M,SBD,Single-ply
1,Gerrit Badenhorst,Open,South Africa,138.8,425,-450,450,450,,240,-250,250,250,325,390,402.5,402.5,,1102.5,140,M,SBD,Single-ply
2,Peter Tregloan,Open,Great Britain,,335,350,367.5,367.5,,210,225,-232.5,225,330,365,-382.5,365,,957.5,140,M,SBD,Single-ply
3,Seagraves,Open,USA,,-315,315,337.5,337.5,,215,227.5,-235,227.5,315,327.5,-337.5,327.5,,892.5,140,M,SBD,Single-ply
4,Asher Sharon,Open,Israel,,250,272.5,-282.5,272.5,,210,222.5,-225,222.5,260,285,-292.5,285,,780,140,M,SBD,Single-ply
1,Dean Glitt,Masters 1,USA,,250,277.5,-302.5,277.5,,125,,,125,235,-255,,235,,637.5,140,M,SBD,Single-ply
2,Ron Gillembardo,Masters 1,USA,,172.5,-182.5,-182.5,172.5,,105,-125,,105,150,160,-182.5,160,,437.5,140,M,SBD,Single-ply
1,Mark Robinson,Open,South Africa,140.1,400,425,-440,425,,250,260,270,270,350,365,372.5,372.5,,1067.5,140+,M,SBD,Single-ply
2,Steven Brodsky,Open,USA,,352.5,377.5,392.5,392.5,,245,260,-265,260,320,-347.5,347.5,347.5,,1000,140+,M,SBD,Single-ply
3,Gary Heisey,Open,USA,,322.5,337.5,-342.5,337.5,,207.5,-220,-222.5,207.5,390,-420,-420,390,,935,140+,M,SBD,Single-ply
DQ,Eduardo Stazi,Open,Italy,,275,290,-325,290,,,,,,,,,,,,140+,M,SBD,Single-ply
DQ,Cody Adams,Masters 1,USA,,-227.5,-227.5,-227.5,,,,,,,,,,,,,140+,M,SBD,Single-ply
