Division,BodyweightKg,Name,WeightClassKg,Sex,BirthYear,Country,Squat1Kg,Squat2Kg,Squat3Kg,Best3SquatKg,Bench1Kg,Bench2Kg,Bench3Kg,Best3BenchKg,Deadlift1Kg,Deadlift2Kg,Deadlift3Kg,Best3DeadliftKg,TotalKg,Event,Equipment,Place
Open,51.2,Patricia Barbosa,52,F,1984,Bra,85,95,-105,95,55,62.5,-65,62.5,120,130,-150,130,287.5,SBD,Raw,1
Open,51.2,Sonia Barboza,52,F,1977,Uru,70,75,-80,75,40,-45,45,45,80,90,100,100,220,SBD,Raw,2
Masters 1,49.4,Maria Oyhenard,52,F,1969,Uru,77.5,80,-82.5,80,42.5,45,-47.5,45,100,107.5,115,115,240,SBD,Raw,1
Open,54.3,Andrea Riverol,57,F,1979,Uru,77.5,-82.5,82.5,82.5,50,55,57.5,57.5,82.5,-87.5,90,90,230,SBD,Raw,1
Juniors,55.7,Yohana Gramajo,57,F,1994,Arg,75,85,90,90,50,60,-65,60,100,110,-115,110,260,SBD,Raw,1
Juniors,53.3,Prado Fernanda,57,F,1991,Uru,90,-95,-95,90,40,42.5,-45,42.5,100,105,110,110,242.5,SBD,Raw,2
Masters 1,55.9,Ines Zeballos,57,F,1970,Arg,80,90,95,95,55,60,-62.5,60,110,120,130,130,285,SBD,Raw,1
Sub-Juniors,61.2,Catalina Pacce,63,F,1995,Uru,80,85,87.5,87.5,45,50,52.5,52.5,100,105,107.5,107.5,247.5,SBD,Raw,1
Juniors,62,Maria Batallanes,63,F,1997,Arg,57.5,-60,65,65,-30,30,35,35,70,75,-82.5,75,175,SBD,Raw,1
Guest,62.6,Luoto Satu,63,F,1969,Fin,105,112.5,117.5,117.5,75,80,82.5,82.5,105,112.5,115,115,315,SBD,Raw,G
Masters 1,71.6,Judimeire A. de Lago,72,F,1972,Bra,110,117.5,-122.5,117.5,60,65,-70,65,142.5,152.5,160,160,342.5,SBD,Raw,1
Open,69.9,Susana Rodríguez,72,F,1955,Uru,120,127.5,-130,127.5,60,62.5,-65,62.5,142.5,147.5,150,150,340,SBD,Raw,1
Open,77.6,Alicia Hernandez,84,F,1976,Arg,130,-140,-140,130,80,92.5,97.5,97.5,140,152.5,165,165,392.5,SBD,Raw,1
Open,85.3,Judith Reitmann,84+,F,1967,Uru,155,165,172.5,172.5,87.5,92.5,-97.5,92.5,165,172.5,-180,172.5,437.5,SBD,Raw,1
Sub-Juniors,51.2,Nahuel Cardozo,53,M,1998,Uru,70,-77.5,-82.5,70,40,47.5,-52.5,47.5,100,120,132.5,132.5,250,SBD,Raw,1
Open,65.4,Sebastian Villagra,66,M,1986,Arg,195,210,220,220,137.5,145,-155,145,225,237.5,-245,237.5,602.5,SBD,Raw,1
Sub-Juniors,60.3,Leonel Ledesma,66,M,1997,Arg,85,90,-97.5,90,60,62.5,-67.5,62.5,155,157.5,160,160,312.5,SBD,Raw,1
Masters 1,63.5,Daniel Decia,66,M,1970,Uru,160,170,175,175,100,105,-107.5,105,190,200,205,205,485,SBD,Raw,1
Masters 2,65.7,Antonio de Morais,66,M,1956,Bra,160,180,-200,180,50,60,70,70,160,180,-200,180,430,SBD,Raw,1
Open,72.1,Carlos Guadalupe,74,M,1986,Uru,170,180,-185,180,150,-155,-155,150,220,227.5,-232.5,227.5,557.5,SBD,Raw,1
Open,73.2,Paul Diron,74,M,1988,Uru,180,192.5,-197,192.5,100,125,140,140,210,222.5,-230,222.5,555,SBD,Raw,2
Open,73.8,Enrique Evaristo,74,M,1988,Per,160,165,-170,165,-120,120,-127.5,120,195,-205,-205,195,480,SBD,Raw,3
Masters 1,74,Gilson Clemente da Silva,74,M,,Bra,150,160,-165,160,90,97.5,-105,97.5,175,205,225,225,482.5,SBD,Raw,1
Masters 1,70.2,Jorge Gil,74,M,1964,Uru,130,140,150,150,80,-95,100,100,180,200,210,210,460,SBD,Raw,2
Masters 1,81.6,Remi Carvalho,83,M,1969,Bra,180,190,205,205,135,145,150,150,210,230,240,240,595,SBD,Raw,1
Open,81.6,Remi Carvalho,83,M,1969,Bra,180,190,205,205,135,145,150,150,210,230,240,240,595,SBD,Raw,1
Open,82.7,Daniel Fernandez,83,M,1970,Uru,140,160,,160,193,-197.5,-197.5,193,150,180,,180,533,SBD,Raw,2
Guest,76.1,Exal García Carrillo,83,M,1984,Chi,160,170,175,175,130,137.5,142.5,142.5,170,185,-195,185,502.5,SBD,Raw,G
Open,75.1,Cristian Lacuesta,83,M,1977,Uru,120,140,-160,140,-100,105,-112.5,105,170,185,200,200,445,SBD,Raw,3
Juniors,81.5,Edgard Sisi,83,M,1991,Arg,177.5,195,-200,195,125,135,-140,135,217.5,232.5,-240,232.5,562.5,SBD,Raw,1
Juniors,79.5,Felipe Urquiola,83,M,1992,Uru,-140,140,-160,140,100,-110,110,110,175,-200,,175,425,SBD,Raw,2
Masters 3,81.5,Antonio Kovar,83,M,1946,Uru,115,122.5,125,125,92.5,-97.5,-97.5,92.5,155,160,165,165,382.5,SBD,Raw,1
Open,92.2,Daniel Riberto,93,M,1993,Bra,197.5,207.5,-215,207.5,142.5,147.5,-152.5,147.5,230,245,-255,245,600,SBD,Raw,1
Open,91.4,Nicolás Urioste,93,M,1968,Uru,185,-200,-200,185,150,157.5,-162.5,157.5,215,225,232.5,232.5,575,SBD,Raw,2
Open,92.6,Cassiano Roberson,93,M,1979,Bra,180,195,202.5,202.5,-110,120,-130,120,210,220,-225,220,542.5,SBD,Raw,3
Open,89.1,Fabian Perez,93,M,1983,Uru,-180,190,-200,190,100,107.5,-112.5,107.5,200,220,230,230,527.5,SBD,Raw,4
Masters 2,89.6,Javier Bandera,93,M,1961,Uru,,,,,160,170,-172.5,170,,,,,170,SBD,Raw,1
Juniors,102.4,Agustin Canepa,105,M,1991,Uru,195,205,212.5,212.5,135,142.5,-147.5,142.5,255,265,-270,265,620,SBD,Raw,1
Masters 3,96.4,Julio Lezama,105,M,1949,Uru,-160,160,-172.5,160,100,105,-107.5,105,200,217.5,-222.5,217.5,482.5,SBD,Raw,1
Masters 1,104,Herbert Sena,105,M,1973,Uru,-235,,,,-160,,,,,,,,,SBD,Raw,DQ
Masters 1,119,Claudemiro Nascimento,120,M,1970,Bra,260,280,295,295,135,145,-150,145,280,310,-330,310,750,SBD,Raw,1
Open,114.4,Juan Tagliabue,120,M,1979,Uru,200,-220,-235,200,140,147.5,-152.5,147.5,240,-252.5,-260,240,587.5,SBD,Raw,1
Open,112.1,Jonatan Miguez,120,M,1989,Arg,-170,170,-190,170,100,120,-122.5,120,190,200,-225,200,490,SBD,Raw,2
Masters 1,116.1,Ignasio Perez,120,M,1972,Uru,210,225,240,240,120,127.5,-132.5,127.5,230,245,-255,245,612.5,SBD,Raw,2
Masters 2,118.3,Richard Alvarez,120,M,1961,Uru,180,190,-200,190,120,-127.5,,120,180,200,-215,200,510,SBD,Raw,1
Masters 1,108.1,Rafael Casulo,120,M,1968,Uru,,,,,150,,,150,,,,,150,SBD,Raw,3
Open,188,Hadad Thiago,120+,M,1986,Bra,220,230,240,240,190,-197.5,-197.5,190,255,275,-285,275,705,SBD,Raw,1
Open,125.5,Rosa Renato,120+,M,1986,Bra,220,240,260,260,140,150,-160,150,235,257.5,-280,257.5,667.5,SBD,Raw,2
