Place,Name,BirthYear,Country,BodyweightKg,Squat1Kg,Squat2Kg,Squat3Kg,Best3SquatKg,Bench1Kg,Bench2Kg,Bench3Kg,Bench4Kg,Best3BenchKg,Deadlift1Kg,Deadlift2Kg,Deadlift3Kg,Deadlift4Kg,Best3DeadliftKg,TotalKg,WeightClassKg,Division,Event,Sex,Equipment
1,Valentina Vermenyuk,1986,RUS,43.9,130,140,150,150,70,75,80,,80,140,-150,155,,155,385,44,Juniors,SBD,F,Single-ply
2,Katarina Skirkanicova,1990,SVK,40.6,-60,60,70,70,27.5,-32.5,-32.5,,27.5,70,80,-85,,80,177.5,44,Juniors,SBD,F,Single-ply
1,Oxana Sokovnina,1986,RUS,47.9,135,145,150,150,-85,85,-90,,85,125,135,-137.5,,135,370,48,Juniors,SBD,F,Single-ply
2,Agnieszka Pawlicka,1985,POL,48,-90,90,-100,90,30,-35,37.5,,37.5,90,100,110,,110,237.5,48,Juniors,SBD,F,Single-ply
3,Sylwia Grodzka,1984,POL,44.5,-50,-50,50,50,25,27.5,30,,30,60,70,80,,80,160,48,Juniors,SBD,F,Single-ply
1,Anna Ryzhkova,1986,RUS,51.9,167.5,-177.5,177.5,177.5,-92.5,92.5,97.5,,97.5,160,167.5,172.5,,172.5,447.5,52,Juniors,SBD,F,Single-ply
2,Evgeniya Arkhypenko,1983,UKR,52,150,157.5,162.5,162.5,95,-102.5,102.5,,102.5,155,165,-175,,165,430,52,Juniors,SBD,F,Single-ply
3,Hanna Rantala,1982,FIN,52,-140,140,150,150,-100,100,-112.5,,100,135,147.5,155,,155,405,52,Juniors,SBD,F,Single-ply
4,Vanessa Vauthier,1983,FRA,51.8,-135,135,145,145,82.5,-87.5,-87.5,,82.5,125,132.5,137.5,,137.5,365,52,Juniors,SBD,F,Single-ply
1,Kira Pavlovskaya,1983,RUS,56,172.5,182.5,187.5,187.5,95,102.5,107.5,,107.5,170,182.5,190,,190,485,56,Juniors,SBD,F,Single-ply
2,Anastasia Pavlova,1983,RUS,54.4,-150,150,160,160,85,95,-97.5,,95,145,150,152.5,,152.5,407.5,56,Juniors,SBD,F,Single-ply
3,Elina Sinkko,1986,FIN,55.4,135,-145,-145,135,80,82.5,85,,85,137.5,145,-150,,145,365,56,Juniors,SBD,F,Single-ply
4,Christin Toepler,1983,GER,55.8,127.5,135,140,140,-77.5,80,-85,,80,127.5,135,140,,140,360,56,Juniors,SBD,F,Single-ply
DD,Svitlana Kozyupa,1987,UKR,55.8,160,170,175,175,95,-102.5,102.5,,102.5,160,170,177.5,,177.5,,56,Juniors,SBD,F,Single-ply
1,Irina Poletaeva,1982,RUS,59.8,200,-208,208,208,135,140,145,,145,170,180,187.5,,187.5,540.5,60,Juniors,SBD,F,Single-ply
2,Kateryna Klymenko,1985,UKR,59.9,-180,180,-195,180,120,125,130,,130,150,160,170,,170,480,60,Juniors,SBD,F,Single-ply
3,Maryana Plaksyva,1987,UKR,59.7,180,-192.5,,180,90,,,,90,160,172.5,180,,180,450,60,Juniors,SBD,F,Single-ply
4,Cécile Courqueux,1983,FRA,56.2,135,142.5,147.5,147.5,57.5,62.5,67.5,,67.5,140,147.5,152.5,,152.5,367.5,60,Juniors,SBD,F,Single-ply
1,Tetyana Skrypka,1987,UKR,66.9,215,222.5,230,230,137.5,-145,145,148,145,190,210,223,,223,597.5,67.5,Juniors,SBD,F,Single-ply
2,Yulia Medvedeva,1986,RUS,66.9,180,195,-202.5,195,-130,130,137.5,,137.5,170,185,-190,,185,517.5,67.5,Juniors,SBD,F,Single-ply
3,Stephanie Lefevre,1983,FRA,67.2,150,-155,155,155,85,-92.5,-92.5,,85,147.5,-155,,,147.5,387.5,67.5,Juniors,SBD,F,Single-ply
1,Yulia Gomon,1984,RUS,71.9,207.5,212.5,-220,212.5,115,122.5,127.5,,127.5,202.5,212.5,215,,215,555,75,Juniors,SBD,F,Single-ply
2,Anna Starodubtseva,1983,UKR,73,210,220,-227.5,220,125,132.5,-137.5,,132.5,190,-200,-202.5,,190,542.5,75,Juniors,SBD,F,Single-ply
3,Ulyana Pihunyk,1986,UKR,71,160,175,180,180,135,-140,140,,140,160,170,180,,180,500,75,Juniors,SBD,F,Single-ply
1,Alexandra Murashova,1982,RUS,80.6,225,240,247.5,247.5,125,130,135,,135,220,227.5,236,,236,618.5,82.5,Juniors,SBD,F,Single-ply
2,Kateryna Boroday,1983,UKR,80.1,225,-235,-240,225,140,152.5,-161,,152.5,185,200,-207.5,,200,577.5,82.5,Juniors,SBD,F,Single-ply
3,Valeria Shcheglova,1983,RUS,88.8,255,260,265,265,-160,160,167.5,171,167.5,220,225,230,,230,662.5,90,Juniors,SBD,F,Single-ply
4,Anna Śliwińska,1982,POL,89.7,225,235,245,245,135,-155,155,-168,155,,,,,180,580,90,Juniors,SBD,F,Single-ply
5,Ganna Lytvyn,1983,UKR,89.5,215,-222.5,,215,120,135,,,135,160,170,,,170,520,90,Juniors,SBD,F,Single-ply
1,Viktoriya Olenytsya,1984,UKR,119.9,235,245,255,255,155,-165,-165,,155,220,-230,230,,230,640,90+,Juniors,SBD,F,Single-ply
2,Hildeborg Juvet Hugdal,1983,NOR,121.7,245,,,245,150,-155,-155,,150,170,182.5,190,,190,585,90+,Juniors,SBD,F,Single-ply
1,Alexander Baykov,1982,RUS,51.6,200,212.5,217.5,217.5,125,-130,,,125,145,155,165,,165,507.5,52,Juniors,SBD,M,Single-ply
2,Marcin Filanski,1983,POL,51.8,110,125,135,135,70,77.5,-82.5,,77.5,140,155,-167.5,,155,367.5,52,Juniors,SBD,M,Single-ply
1,Konstantin Danilov,1986,RUS,55.8,220,240,250,250,120,125,130,,130,215,230,240,245,240,620,56,Juniors,SBD,M,Single-ply
2,Tomasz Zambrzycki,1985,POL,54.7,170,190,200,200,92.5,-100,100,,100,170,190,-192.5,,190,490,56,Juniors,SBD,M,Single-ply
3,Jaroslaw Skaba,1982,POL,55.8,160,-175,180,180,80,90,-95,,90,170,180,-192.5,,180,450,56,Juniors,SBD,M,Single-ply
1,Sergey Skochek,1983,RUS,59.8,235,250,260,260,-170,170,185,,185,230,250,260,,260,705,60,Juniors,SBD,M,Single-ply
2,Dominik Golak,1982,POL,60,202.5,-212.5,212.5,212.5,130,135,-140,,135,-200,200,207.5,,207.5,555,60,Juniors,SBD,M,Single-ply
3,Rémi Bhang,1984,FRA,59.7,195,210,-220,210,95,102.5,107.5,,107.5,210,225,-237.5,,225,542.5,60,Juniors,SBD,M,Single-ply
4,Alexander Zuch,1982,GER,59.6,185,-200,-200,185,100,120,-125,,120,180,190,-200,,190,495,60,Juniors,SBD,M,Single-ply
1,Maxim Nurutdinov,1982,RUS,67.5,-270,270,280,280,160,165,170,,170,240,252.5,262.5,,262.5,712.5,67.5,Juniors,SBD,M,Single-ply
2,Volodymyr Rysiev,1982,UKR,67.4,240,255,265,265,165,172.5,175,,175,240,252.5,-272.5,,252.5,692.5,67.5,Juniors,SBD,M,Single-ply
3,Pavol Seman,,SVK,66.2,205,215,225,225,145,-150,150,,150,220,230,255,,255,630,67.5,Juniors,SBD,M,Single-ply
4,Antony Mastrolorenzo,1982,FRA,66.3,235,245,250,250,135,145,147.5,,147.5,220,227.5,232.5,,232.5,630,67.5,Juniors,SBD,M,Single-ply
5,Michel Ehrlicher,1985,GER,66.7,175,185,195,195,107.5,112.5,-117.5,,112.5,205,220,-252.5,,220,527.5,67.5,Juniors,SBD,M,Single-ply
DQ,Rafał Wróbel,1982,POL,67.4,,,,245,,,,,,,,,,225,,67.5,Juniors,SBD,M,Single-ply
DQ,Tomasz Jarosiewicz,1984,POL,67.4,230,240,250,250,-170,-170,-170,,,-250,250,-257.5,,250,,67.5,Juniors,SBD,M,Single-ply
1,Alexander Govorin,1985,RUS,73.7,285,300,310,310,152.5,157.5,160,-315,160,280,290,300,,300,770,75,Juniors,SBD,M,Single-ply
2,Artem Postovalov,1986,UKR,74.5,270,282.5,292.5,292.5,170,180,187.5,,187.5,260,280,-287.5,,280,760,75,Juniors,SBD,M,Single-ply
3,Ján Matej,1985,SVK,73.3,250,-265,-265,250,-160,160,165,,165,220,240,-250,,240,655,75,Juniors,SBD,M,Single-ply
4,Bartlomiej Szymkowiak,1984,POL,74.9,270,-290,-290,270,125,130,135,,135,250,-260,-260,,250,655,75,Juniors,SBD,M,Single-ply
5,Roman Sadikov,1982,EST,74.8,240,-250,,240,135,145,150,,150,240,-260,260,,260,650,75,Juniors,SBD,M,Single-ply
6,Arkadiusz Kaminski,1982,POL,68.3,225,-240,240,240,125,130,135,,135,225,-235,235,,235,610,75,Juniors,SBD,M,Single-ply
1,Alexey Ernandes-Ortega,1984,RUS,82.4,320,340,347.5,347.5,210,222.5,-230,,222.5,280,295,-300,,295,865,82.5,Juniors,SBD,M,Single-ply
2,Sergiy Taranov,1984,UKR,81.9,300,315,322.5,322.5,200,212.5,220,,220,290,307.5,-322.5,,307.5,850,82.5,Juniors,SBD,M,Single-ply
3,Marcel Lindholm,1982,FIN,81.5,290,300,-305,300,170,-177.5,177.5,,177.5,285,295,-307.5,,295,772.5,82.5,Juniors,SBD,M,Single-ply
4,André Hentschel,1984,GER,82.4,240,255,267.5,267.5,-190,-190,190,,190,235,250,-255,,250,707.5,82.5,Juniors,SBD,M,Single-ply
5,Ville Pikkarainen,1984,FIN,82.5,270,-280,-280,270,135,142.5,147.5,,147.5,-270,-270,270,,270,687.5,82.5,Juniors,SBD,M,Single-ply
6,Mathieu Pingeot,1982,FRA,82.3,230,242.5,252.5,252.5,150,160,165,,165,240,252.5,260,,260,677.5,82.5,Juniors,SBD,M,Single-ply
7,Arvo Kaljapulk,1982,EST,81.3,230,-250,-250,230,140,-147.5,-147.5,,140,275,-292.5,292.5,,292.5,662.5,82.5,Juniors,SBD,M,Single-ply
1,Vadim Zamornikov,1982,RUS,89.8,360,-375.5,-375.5,360,200,210,220,,220,340,355.5,365,,365,945,90,Juniors,SBD,M,Single-ply
2,Vadym Dovganuk,1987,UKR,89.2,320,-332.5,332.5,332.5,215,225,230,,230,265,282.5,290,,290,852.5,90,Juniors,SBD,M,Single-ply
3,Volodymyr Oliyarnyk,1983,UKR,88.2,295,307.5,315,315,187.5,195,197.5,,197.5,280,-292.5,-300,,280,792.5,90,Juniors,SBD,M,Single-ply
4,Michal Tatarynowicz,1982,POL,88.6,270,285,-300,285,180,190,-195,,190,277.5,285,-297.5,,285,760,90,Juniors,SBD,M,Single-ply
5,Tomáš Urban,1985,CZE,89.1,270,285,300,300,170,182.5,-192.5,,182.5,270,277.5,-285,,277.5,760,90,Juniors,SBD,M,Single-ply
6,Pawel Krasowski,1985,POL,89.9,260,270,280,280,165,172.5,177.5,,177.5,280,300,-307.5,,300,757.5,90,Juniors,SBD,M,Single-ply
7,Mikael Mäkinen,1982,FIN,89.1,265,275,282.5,282.5,165,175,180,,180,250,270,287.5,,287.5,750,90,Juniors,SBD,M,Single-ply
8,Juhani Salo,1984,FIN,87.5,265,275,280,280,142.5,150,-155,,150,285,295,300,,300,730,90,Juniors,SBD,M,Single-ply
9,Andreas Schlichenmaier,1985,GER,89,220,250,-265,250,145,155,160,,160,-250,250,282.5,,282.5,692.5,90,Juniors,SBD,M,Single-ply
10,Gilbert Quentin,1983,FRA,89.9,240,252.5,257.5,257.5,185,195,-197.5,,195,-240,-240,240,,240,692.5,90,Juniors,SBD,M,Single-ply
1,Mykhaylo Artsymovych,1982,UKR,99.1,340,355,-362.5,355,210,-217.5,-220,,210,-330,332.5,-335,,332.5,897.5,100,Juniors,SBD,M,Single-ply
2,Oleksandr Bashkatov,1982,UKR,99.8,325,-335,-335,325,-220,220,227.5,,227.5,315,325,-330,,325,877.5,100,Juniors,SBD,M,Single-ply
3,Konstantin Pozdeev,1984,RUS,91.7,340,-350,-350,340,185,192.5,195,,195,-332.5,-332.5,332.5,,332.5,867.5,100,Juniors,SBD,M,Single-ply
4,Andreas Hjelmtveit,1983,NOR,99.3,325,335,-342.5,335,-190,190,195,,195,330,-335,-335,,330,860,100,Juniors,SBD,M,Single-ply
5,Stephane Herrgott,1982,FRA,92.1,240,252.5,-262.5,252.5,200,-207.5,207.5,,207.5,240,255,265,,265,725,100,Juniors,SBD,M,Single-ply
6,Andreas Pauluth,1982,GER,95.3,250,265,-275,265,165,172.5,-180,,172.5,240,252.5,262.5,,262.5,700,100,Juniors,SBD,M,Single-ply
1,Sergey Sosnovskiy,1983,RUS,109.6,360,380,-390,380,220,232.5,-237.5,,232.5,330,355,-360,,355,967.5,110,Juniors,SBD,M,Single-ply
2,Oleksandr Shepel,1987,UKR,108,-320,320,332.5,332.5,180,200,210,,210,300,320,330,,330,872.5,110,Juniors,SBD,M,Single-ply
3,Aleksandrs Grigorjevs,1985,LAT,102.4,330,-340,-340,330,200,207.5,212.5,,212.5,280,-295,-300,,280,822.5,110,Juniors,SBD,M,Single-ply
4,Riku Rapelo,1983,FIN,107.5,290,310,320,320,205,212.5,217.5,,217.5,272.5,-287.5,-287.5,,272.5,810,110,Juniors,SBD,M,Single-ply
5,Fridrich Matejík,1983,SVK,105.8,250,270,-290,270,180,190,200,,200,220,240,250,,250,720,110,Juniors,SBD,M,Single-ply
DQ,Eirik Jørgensen,1983,DEN,109.4,265,275,280,280,-177.5,-177.5,-177.5,,,280,295,302.5,,302.5,,110,Juniors,SBD,M,Single-ply
1,Roman Voroshylin,1983,UKR,112.9,360,380,-390,380,240,250,-255,,250,350,370,-390.5,,370,1000,125,Juniors,SBD,M,Single-ply
2,Anton Kibirev,1982,RUS,123.7,350,370,385,385,235,250,260,,260,310,330,340,,340,985,125,Juniors,SBD,M,Single-ply
3,Sergiy Romanchuk,1982,UKR,124.4,330,342.5,-350,342.5,210,220,-225,,220,340,-350,-350,,340,902.5,125,Juniors,SBD,M,Single-ply
4,Haakon Farstad,1985,NOR,118.9,290,305,312.5,312.5,-180,180,-185,,180,270,290,-302.5,,290,782.5,125,Juniors,SBD,M,Single-ply
1,Yevgen Yarymbash,1983,UKR,125.2,380,392.5,407.5,407.5,295,310,320,,320,320,335,347.5,,347.5,1075,125+,Juniors,SBD,M,Single-ply
2,Alexander Klyushev,1983,RUS,129,-360,360,-380,360,-220,220,230,,230,340,360,378,,378,968,125+,Juniors,SBD,M,Single-ply
